<?xml version="1.0" encoding="UTF-8" standalone="no"?>
<!-- Created with Inkscape (http://www.inkscape.org/) -->

<svg
   xmlns:dc="http://purl.org/dc/elements/1.1/"
   xmlns:cc="http://creativecommons.org/ns#"
   xmlns:rdf="http://www.w3.org/1999/02/22-rdf-syntax-ns#"
   xmlns:svg="http://www.w3.org/2000/svg"
   xmlns="http://www.w3.org/2000/svg"
   xmlns:sodipodi="http://sodipodi.sourceforge.net/DTD/sodipodi-0.dtd"
   xmlns:inkscape="http://www.inkscape.org/namespaces/inkscape"
   id="svg2"
   version="1.1"
   inkscape:version="0.91 r13725"
   xml:space="preserve"
   width="66.832115"
   height="57.710739"
   viewBox="0 0 66.832116 57.710738"
   sodipodi:docname="rutasTipicas.svg"><metadata
     id="metadata8"><rdf:RDF><cc:Work
         rdf:about=""><dc:format>image/svg+xml</dc:format><dc:type
           rdf:resource="http://purl.org/dc/dcmitype/StillImage" /><dc:title /></cc:Work></rdf:RDF></metadata><defs
     id="defs6"><clipPath
       clipPathUnits="userSpaceOnUse"
       id="clipPath16"><path
         d="m 0,141.732 283.465,0 L 283.465,0 0,0 0,141.732 Z"
         id="path18"
         inkscape:connector-curvature="0" /></clipPath></defs><sodipodi:namedview
     pagecolor="#ffffff"
     bordercolor="#666666"
     borderopacity="1"
     objecttolerance="10"
     gridtolerance="10"
     guidetolerance="10"
     inkscape:pageopacity="0"
     inkscape:pageshadow="2"
     inkscape:window-width="1920"
     inkscape:window-height="1020"
     id="namedview4"
     showgrid="false"
     inkscape:zoom="1.281287"
     inkscape:cx="-324.13129"
     inkscape:cy="-68.98685"
     inkscape:window-x="0"
     inkscape:window-y="0"
     inkscape:window-maximized="1"
     inkscape:current-layer="g10"
     fit-margin-top="0"
     fit-margin-left="0"
     fit-margin-right="0"
     fit-margin-bottom="0" /><g
     id="g10"
     inkscape:groupmode="layer"
     inkscape:label="rutas(1)"
     transform="matrix(1.25,0,0,-1.25,-78.391375,110.37296)"><g
       id="g20"
       transform="translate(106.2017,71.0234)"
       style="fill:#808080;fill-opacity:1"><path
         d="m 0,0 c -1.121,1.963 -5.146,6.671 -5.012,9.824 0.144,3.385 0.971,5.19 6.644,5.385 2.16,-0.861 3.511,-1.736 3.833,-3.5 C 6.198,7.695 2.298,4.042 0,0 m 1.403,17.242 c -4.26,0.418 -8.528,-3.203 -8.219,-7.218 -0.011,0.009 -0.022,0.015 -0.033,0.022 -0.004,-0.056 0.013,-0.438 0.033,-0.422 0.161,-1.738 2.043,-5.534 2.114,-5.665 1.955,-3.12 1.769,-4.816 4.501,-6.564 1.501,-0.961 2.849,3.7 3.666,4.98 0.4,0.628 1.308,2.068 1.547,2.437 0.498,0.769 1.559,3.084 1.786,3.897 1.064,3.809 -1.818,8.182 -5.395,8.533"
         style="fill:#808080;fill-opacity:1;fill-rule:evenodd;stroke:none"
         id="path22"
         inkscape:connector-curvature="0" /></g><g
       id="g24"
       transform="translate(115.8931,46.7246)"
       style="fill:#808080;fill-opacity:1"><path
         d="m 0,0 c -0.008,0.057 0,0.107 0.007,0.158 -0.054,0.225 -0.111,0.446 -0.163,0.678 -0.088,0.125 -0.11,0.258 -0.081,0.383 -1.202,5.58 -1.657,12.933 -2.036,18.67 -0.049,0.735 -0.198,6.362 -0.889,8.446 -0.54,0.353 -0.873,0.005 -1.168,-0.493 -0.238,-0.402 -0.424,-0.828 -0.61,-1.255 0.157,-0.882 0.416,-1.738 0.461,-2.087 0.525,-4.112 0.465,-8.057 1.002,-13.434 0.414,-4.136 1.8,-8.472 1.404,-12.028 -3.715,0.856 -6.258,1.757 -9.423,2.807 -1.84,0.61 -3.896,1.852 -5.814,2.005 -3.113,0.247 -5.78,-1.665 -8.22,-3.007 -2.628,-1.447 -6.095,-3.589 -9.623,-2.808 -1.524,0.338 -3.38,1.182 -5.012,1.805 -3.472,1.326 -7.552,2.803 -9.824,5.213 -0.661,6.566 -0.555,14.22 -0.601,20.85 -0.014,1.925 -0.292,3.82 -0.011,5.474 -0.047,0.616 -0.029,1.237 0.163,1.826 0.012,0.035 0.034,0.058 0.05,0.088 0.006,0.033 0.007,0.066 0.013,0.1 0.048,0.273 0.253,0.362 0.462,0.342 0.082,0.026 0.172,0.037 0.278,0.007 0.36,-0.104 0.711,-0.234 1.067,-0.35 0.629,-0.163 1.248,-0.357 1.839,-0.62 1.07,-0.2 2.104,-0.397 3.156,-0.853 2.563,-1.109 4.315,-3.517 6.816,-3.809 2.508,-0.293 4.174,0.97 5.814,1.604 4.05,1.565 8.507,3.802 13.033,2.932 0.555,0.555 0.002,1.859 -0.533,2.628 -3.109,0.754 -6.625,-1.561 -9.493,-2.553 -2.139,-0.74 -5.556,-2.153 -7.818,-2.205 -3.119,-0.072 -4.088,1.908 -6.215,3.007 -0.858,0.443 -2.129,0.789 -3.208,1.203 -1.867,0.716 -3.344,1.289 -5.668,1.226 -0.285,-0.067 -0.581,-0.152 -0.872,-0.257 -0.012,-0.01 -0.023,-0.022 -0.035,-0.032 -0.58,-0.908 -1.059,-1.916 -1.41,-3.052 -0.008,-0.063 -0.012,-0.127 -0.018,-0.19 1.615,-8.758 0.283,-20.284 1.387,-28.168 0.388,-2.768 2.851,-2.774 5.212,-3.81 1.049,-0.46 5.832,-2.662 7.085,-3.177 0.5,-0.039 5.564,-2.107 7.551,-1.834 0.804,0.109 2.41,0.753 3.408,1.202 1.804,0.812 3.592,2.22 5.012,3.008 1.405,0.78 3.486,1.756 5.149,1.794 0.065,0.039 0.141,0.068 0.233,0.074 3.903,0.231 8.029,-1.53 11.447,-3.557 2.099,-0.863 4.183,-1.643 6.506,-1.445 0.17,0.14 0.306,0.302 0.366,0.506 C 0.451,-2.053 0.139,-0.935 0,0"
         style="fill:#808080;fill-opacity:1;fill-rule:evenodd;stroke:none"
         id="path26"
         inkscape:connector-curvature="0" /></g><g
       id="g28"
       transform="translate(108.7319,80.9746)"
       style="fill:#808080;fill-opacity:1"><path
         d="m 0,0 c -0.251,-0.599 -0.596,-1.094 -1.124,-1.382 -1.065,-0.761 -2.333,-0.304 -2.843,0.888 0.004,0.049 0.014,0.092 0.019,0.14 -0.012,0.037 -0.03,0.069 -0.034,0.112 -0.065,0.656 0.194,1.19 0.628,1.543 0.947,1.308 2.71,1.236 3.456,-0.877 C 0.079,0.36 0.052,0.306 0.028,0.245 0.041,0.171 0.039,0.091 0,0 m -2.764,3.515 c -2.35,-0.197 -3.058,-1.957 -3.208,-3.207 -0.229,-1.911 0.795,-3.775 2.005,-4.01 7.069,-1.374 8.069,7.793 1.203,7.217"
         style="fill:#808080;fill-opacity:1;fill-rule:evenodd;stroke:none"
         id="path30"
         inkscape:connector-curvature="0" /></g><g
       id="g32"
       transform="translate(70.7158,54.3828)"
       style="fill:#808080;fill-opacity:1"><path
         d="M 0,0 C 0.44,0.896 1.603,1.07 1.604,2.406 0.469,4.344 -0.538,2.051 -1.403,1.404 -2.015,1.661 -1.939,2.605 -2.807,2.607 -3.063,2.549 -3.22,2.391 -3.438,2.296 -3.444,2.289 -3.454,2.285 -3.461,2.279 -3.488,2.223 -3.524,2.174 -3.572,2.133 -3.705,1.859 -3.81,1.56 -3.777,1.275 -3.584,0.652 -3.02,0.402 -2.606,0 -2.942,-0.628 -3.321,-1.213 -3.21,-2.289 c 0.055,-0.056 0.095,-0.123 0.118,-0.198 0.106,-0.076 0.214,-0.151 0.32,-0.228 0.048,-0.011 0.095,-0.022 0.133,-0.045 0.139,0.007 0.265,0.054 0.381,0.128 0.023,0.058 0.403,0.532 0.477,0.78 0.028,0.094 0.077,0.162 0.135,0.217 0.049,0.111 0.137,0.198 0.264,0.242 0.214,0.161 0.556,0.189 0.764,-0.089 0.417,-0.558 1.385,-1.262 1.647,-1.443 0.035,-0.009 0.073,-0.013 0.103,-0.027 0.031,0.014 0.071,0.018 0.106,0.028 0.042,0.034 0.092,0.06 0.15,0.077 0.117,0.146 0.258,0.34 0.345,0.462 0.012,0.063 0.033,0.12 0.065,0.174 C 1.731,-0.941 0.481,-0.854 0,0"
         style="fill:#808080;fill-opacity:1;fill-rule:evenodd;stroke:none"
         id="path34"
         inkscape:connector-curvature="0" /></g><g
       id="g112"
       transform="translate(77.6948,57.04)"
       style="fill:#808080;fill-opacity:1"><path
         d="M 0,0 C 0.268,-1.811 -4.353,-3.854 -4.032,-1.02 -3.372,-0.395 -0.649,1.287 0,0"
         style="fill:#808080;fill-opacity:1;fill-rule:evenodd;stroke:none"
         id="path114"
         inkscape:connector-curvature="0" /></g><g
       id="g116"
       transform="translate(79.292,57.4639)"
       style="fill:#808080;fill-opacity:1"><path
         d="M 0,0 C -0.551,1.609 3.279,4.228 3.473,1.589 2.983,0.908 0.808,-1.066 0,0"
         style="fill:#808080;fill-opacity:1;fill-rule:evenodd;stroke:none"
         id="path118"
         inkscape:connector-curvature="0" /></g><g
       id="g120"
       transform="translate(84.3735,59.8975)"
       style="fill:#808080;fill-opacity:1"><path
         d="M 0,0 C -0.505,1.622 3.122,3.948 3.281,1.335 2.814,0.697 0.75,-1.104 0,0"
         style="fill:#808080;fill-opacity:1;fill-rule:evenodd;stroke:none"
         id="path122"
         inkscape:connector-curvature="0" /></g><g
       id="g124"
       transform="translate(92.7085,64.6064)"
       style="fill:#808080;fill-opacity:1"><path
         d="M 0,0 C 1.377,-1.942 -1.236,-2.79 -2.774,-2.64 -4.706,-0.952 -0.963,0.058 0,0"
         style="fill:#808080;fill-opacity:1;fill-rule:evenodd;stroke:none"
         id="path126"
         inkscape:connector-curvature="0" /></g><g
       id="g128"
       transform="translate(98.6963,66.1611)"
       style="fill:#808080;fill-opacity:1"><path
         d="M 0,0 C -0.072,-1.891 -4.274,-2.881 -3.542,-0.095 -2.887,0.386 -0.333,1.449 0,0"
         style="fill:#808080;fill-opacity:1;fill-rule:evenodd;stroke:none"
         id="path130"
         inkscape:connector-curvature="0" /></g><g
       id="g132"
       transform="translate(102.625,67.3574)"
       style="fill:#808080;fill-opacity:1"><path
         d="M 0,0 C -1.92,-1.453 -3.968,-0.287 -0.981,1.566 -0.333,1.641 1.377,1.295 0,0"
         style="fill:#808080;fill-opacity:1;fill-rule:evenodd;stroke:none"
         id="path134"
         inkscape:connector-curvature="0" /></g></g></svg>